Monkeypox Outbreak
…
# Number of confirmed cases
monkeypox_confirmed %>% count(Status == "confirmed")

## # A tibble: 1 x 2
##   `Status == "confirmed"`     n
##   <lgl>                   <int>
## 1 TRUE                    15734

# Confirmed cases by date
monkeypox_confirmed %>% 
  select(Status, Date_confirmation) %>%
  group_by(Date_confirmation)

## # A tibble: 15,734 x 2
## # Groups:   Date_confirmation [78]
##    Status    Date_confirmation
##    <chr>     <date>           
##  1 confirmed 2022-01-31       
##  2 confirmed 2022-01-31       
##  3 confirmed 2022-01-31       
##  4 confirmed 2022-02-17       
##  5 confirmed 2022-02-17       
##  6 confirmed 2022-02-17       
##  7 confirmed 2022-02-28       
##  8 confirmed 2022-03-04       
##  9 confirmed 2022-03-04       
## 10 confirmed 2022-03-31       
## # ... with 15,724 more rows
## # i Use `print(n = ...)` to see more rows

# Count number of cases by confirmation date
num_date_confirmation <- monkeypox_confirmed %>% 
  group_by(Date_confirmation) %>% 
  summarise(count = n()) %>% 
  arrange(Date_confirmation)

num_date_confirmation

## # A tibble: 78 x 2
##    Date_confirmation count
##    <date>            <int>
##  1 2022-01-31            3
##  2 2022-02-17            3
##  3 2022-02-28            1
##  4 2022-03-04            2
##  5 2022-03-31            6
##  6 2022-04-10            4
##  7 2022-04-12            2
##  8 2022-04-30            5
##  9 2022-05-06            1
## 10 2022-05-08           10
## # ... with 68 more rows
## # i Use `print(n = ...)` to see more rows
…
